^C:\DATA\VSPROJECTS\DELAYCONSOLE\DELAYCONSOLE\DEBUG\CDATAEXTRACTOR.OBJ|C:\DATA\VSPROJECTS\DELAYCONSOLE\DELAYCONSOLE\DEBUG\CGRAPH.OBJ|C:\DATA\VSPROJECTS\DELAYCONSOLE\DELAYCONSOLE\DEBUG\CIRCUIT.OBJ|C:\DATA\VSPROJECTS\DELAYCONSOLE\DELAYCONSOLE\DEBUG\CNODE.OBJ|C:\DATA\VSPROJECTS\DELAYCONSOLE\DELAYCONSOLE\DEBUG\CVECTOR.OBJ|C:\DATA\VSPROJECTS\DELAYCONSOLE\DELAYCONSOLE\DEBUG\MAIN.OBJ
C:\PROGRAM FILES (X86)\WINDOWS KITS\8.0\LIB\WIN8\UM\X86\KERNEL32.LIB
C:\PROGRAM FILES (X86)\WINDOWS KITS\8.0\LIB\WIN8\UM\X86\USER32.LIB
C:\PROGRAM FILES (X86)\WINDOWS KITS\8.0\LIB\WIN8\UM\X86\GDI32.LIB
C:\PROGRAM FILES (X86)\WINDOWS KITS\8.0\LIB\WIN8\UM\X86\WINSPOOL.LIB
C:\PROGRAM FILES (X86)\WINDOWS KITS\8.0\LIB\WIN8\UM\X86\COMDLG32.LIB
C:\PROGRAM FILES (X86)\WINDOWS KITS\8.0\LIB\WIN8\UM\X86\ADVAPI32.LIB
C:\PROGRAM FILES (X86)\WINDOWS KITS\8.0\LIB\WIN8\UM\X86\SHELL32.LIB
C:\PROGRAM FILES (X86)\WINDOWS KITS\8.0\LIB\WIN8\UM\X86\OLE32.LIB
C:\PROGRAM FILES (X86)\WINDOWS KITS\8.0\LIB\WIN8\UM\X86\OLEAUT32.LIB
C:\PROGRAM FILES (X86)\WINDOWS KITS\8.0\LIB\WIN8\UM\X86\UUID.LIB
C:\PROGRAM FILES (X86)\WINDOWS KITS\8.0\LIB\WIN8\UM\X86\ODBC32.LIB
C:\PROGRAM FILES (X86)\WINDOWS KITS\8.0\LIB\WIN8\UM\X86\ODBCCP32.LIB
C:\DATA\VSPROJECTS\DELAYCONSOLE\DELAYCONSOLE\DEBUG\CDATAEXTRACTOR.OBJ
C:\DATA\VSPROJECTS\DELAYCONSOLE\DELAYCONSOLE\DEBUG\CGRAPH.OBJ
C:\DATA\VSPROJECTS\DELAYCONSOLE\DELAYCONSOLE\DEBUG\CIRCUIT.OBJ
C:\DATA\VSPROJECTS\DELAYCONSOLE\DELAYCONSOLE\DEBUG\CNODE.OBJ
C:\DATA\VSPROJECTS\DELAYCONSOLE\DELAYCONSOLE\DEBUG\CVECTOR.OBJ
C:\DATA\VSPROJECTS\DELAYCONSOLE\DELAYCONSOLE\DEBUG\MAIN.OBJ
C:\WINDOWS\SYSTEM32\TZRES.DLL
C:\WINDOWS\GLOBALIZATION\SORTING\SORTDEFAULT.NLS
C:\PROGRAM FILES (X86)\MICROSOFT VISUAL STUDIO 11.0\VC\LIB\MSVCPRTD.LIB
C:\PROGRAM FILES (X86)\MICROSOFT VISUAL STUDIO 11.0\VC\LIB\MSVCRTD.LIB
C:\PROGRAM FILES (X86)\MICROSOFT VISUAL STUDIO 11.0\VC\LIB\OLDNAMES.LIB
C:\PROGRAM FILES (X86)\WINDOWS KITS\8.0\BIN\X86\RC.EXE
C:\PROGRAM FILES (X86)\MICROSOFT VISUAL STUDIO 11.0\VC\BIN\CVTRES.EXE
C:\WINDOWS\SYSTEM32\RSAENH.DLL
^C:\DATA\DOCTORAL\REPO\DELAY-FAULT-ANALYSIS\DELAYCONSOLE\DEBUG\CDATAEXTRACTOR.OBJ|C:\DATA\DOCTORAL\REPO\DELAY-FAULT-ANALYSIS\DELAYCONSOLE\DEBUG\CGRAPH.OBJ|C:\DATA\DOCTORAL\REPO\DELAY-FAULT-ANALYSIS\DELAYCONSOLE\DEBUG\CIRCUIT.OBJ|C:\DATA\DOCTORAL\REPO\DELAY-FAULT-ANALYSIS\DELAYCONSOLE\DEBUG\CNODE.OBJ|C:\DATA\DOCTORAL\REPO\DELAY-FAULT-ANALYSIS\DELAYCONSOLE\DEBUG\CVECTOR.OBJ|C:\DATA\DOCTORAL\REPO\DELAY-FAULT-ANALYSIS\DELAYCONSOLE\DEBUG\ELEMENTTESTINFO.OBJ|C:\DATA\DOCTORAL\REPO\DELAY-FAULT-ANALYSIS\DELAYCONSOLE\DEBUG\MAIN.OBJ
C:\PROGRAM FILES (X86)\WINDOWS KITS\8.0\LIB\WIN8\UM\X86\KERNEL32.LIB
C:\PROGRAM FILES (X86)\WINDOWS KITS\8.0\LIB\WIN8\UM\X86\USER32.LIB
C:\PROGRAM FILES (X86)\WINDOWS KITS\8.0\LIB\WIN8\UM\X86\GDI32.LIB
C:\PROGRAM FILES (X86)\WINDOWS KITS\8.0\LIB\WIN8\UM\X86\WINSPOOL.LIB
C:\PROGRAM FILES (X86)\WINDOWS KITS\8.0\LIB\WIN8\UM\X86\COMDLG32.LIB
C:\PROGRAM FILES (X86)\WINDOWS KITS\8.0\LIB\WIN8\UM\X86\ADVAPI32.LIB
C:\PROGRAM FILES (X86)\WINDOWS KITS\8.0\LIB\WIN8\UM\X86\SHELL32.LIB
C:\PROGRAM FILES (X86)\WINDOWS KITS\8.0\LIB\WIN8\UM\X86\OLE32.LIB
C:\PROGRAM FILES (X86)\WINDOWS KITS\8.0\LIB\WIN8\UM\X86\OLEAUT32.LIB
C:\PROGRAM FILES (X86)\WINDOWS KITS\8.0\LIB\WIN8\UM\X86\UUID.LIB
C:\PROGRAM FILES (X86)\WINDOWS KITS\8.0\LIB\WIN8\UM\X86\ODBC32.LIB
C:\PROGRAM FILES (X86)\WINDOWS KITS\8.0\LIB\WIN8\UM\X86\ODBCCP32.LIB
C:\DATA\DOCTORAL\REPO\DELAY-FAULT-ANALYSIS\DELAYCONSOLE\DEBUG\CDATAEXTRACTOR.OBJ
C:\DATA\DOCTORAL\REPO\DELAY-FAULT-ANALYSIS\DELAYCONSOLE\DEBUG\CGRAPH.OBJ
C:\DATA\DOCTORAL\REPO\DELAY-FAULT-ANALYSIS\DELAYCONSOLE\DEBUG\CIRCUIT.OBJ
C:\DATA\DOCTORAL\REPO\DELAY-FAULT-ANALYSIS\DELAYCONSOLE\DEBUG\CNODE.OBJ
C:\DATA\DOCTORAL\REPO\DELAY-FAULT-ANALYSIS\DELAYCONSOLE\DEBUG\CVECTOR.OBJ
C:\DATA\DOCTORAL\REPO\DELAY-FAULT-ANALYSIS\DELAYCONSOLE\DEBUG\ELEMENTTESTINFO.OBJ
C:\DATA\DOCTORAL\REPO\DELAY-FAULT-ANALYSIS\DELAYCONSOLE\DEBUG\MAIN.OBJ
C:\WINDOWS\SYSTEM32\TZRES.DLL
C:\PROGRAM FILES (X86)\MICROSOFT VISUAL STUDIO 11.0\VC\BIN\1033\LINKUI.DLL
C:\WINDOWS\GLOBALIZATION\SORTING\SORTDEFAULT.NLS
C:\PROGRAM FILES (X86)\MICROSOFT VISUAL STUDIO 11.0\VC\LIB\MSVCPRTD.LIB
C:\PROGRAM FILES (X86)\MICROSOFT VISUAL STUDIO 11.0\VC\LIB\MSVCRTD.LIB
C:\PROGRAM FILES (X86)\MICROSOFT VISUAL STUDIO 11.0\VC\LIB\OLDNAMES.LIB
C:\PROGRAM FILES (X86)\WINDOWS KITS\8.0\BIN\X86\RC.EXE
C:\PROGRAM FILES (X86)\MICROSOFT VISUAL STUDIO 11.0\VC\BIN\CVTRES.EXE
C:\WINDOWS\SYSTEM32\RSAENH.DLL
